id,login,name,salary
e0001,jweissnat,Jeffery Weissnat,98302.25
e0002,ereinger,Ella Reinger,26451.77
e0003,dmosciski,Douglass Mosciski,73021.98
e0004,ckerluke,Cecily Kerluke,62421.95
e0005,jstanton,Jasmine Stanton,64180.36
e0006,trobel,Tony Robel,40055.34
e0007,kkrajcik,Katelyn Krajcik,77049.53
e0008,tdickinson,Tana Dickinson,14565.95
e0009,kkeeling,Kasey Keeling,69691.99
e0010,mcronin,Mitch Cronin,99507.34
e0011,gcrist,Garry Crist,89987.23
e0012,idaniel,Ian Daniel,99726.17
e0013,hgraham,Hyman Graham,97385.32
e0014,kwyman,Kallie Wyman,79448.54
e0015,rkerluke,Robyn Kerluke,45187.85
e0016,creinger,Cole Reinger,37017.01
e0017,ccarter,Cyril Carter,61495.65
e0018,rpfannerstill,Rupert Pfannerstill,55785.48
e0019,khaag,Kelsie Haag,56201.58
e0020,agorczany,Art Gorczany,14118.061
e0021,jheaney,Jillian Heaney,15048.68
e0022,rtoy,Rico Toy,83375.71
e0023,mgulgowski,Marcelo Gulgowski,53353.97
e0024,rlesch,Ross Lesch,75652.26
e0025,creichel,Carrol Reichel,84745.02
e0026,ckshlerin,Chung Kshlerin,42725.58
e0027,kbaumbach,Kirby Baumbach,24766.32
e0028,erohan,Emiko Rohan,23936.65
e0029,ywaelchi,Yaeko Waelchi,64914.46
e0030,choeger,Crista Hoeger,12881.71
e0031,hwiegand,Hans Wiegand,59464.48465
e0032,lhills,Len Hills,30731.48
e0033,hkuhn,Hans Kuhn,78452.96
e0034,ntorp,Napoleon Torp,20221.38
e0035,fkozey,Federico Kozey,37170.01
e0036,emante,Elaina Mante,22115.35
e0037,soberbrunner,Sina Oberbrunner,25471.89
e0038,dfunk,Dina Funk,44353.25
e0039,rlynch,Ruben Lynch,46836.83
e0040,mjones,Miguel Jones,77944.61
e0041,mschaefer,Myrle Schaefer,79340.94
e0042,hhayes,Heriberto Hayes,18080.74
e0043,pkuhlman,Priscilla Kuhlman,72486.58
e0044,ibreitenberg,Iesha Breitenberg,37490.01
e0045,cullrich,Cher Ullrich,47072.59
e0046,akemmer,Amira Kemmer,33367.11
e0047,mhirthe,Mary Hirthe,80592.28
e0048,rpaucek,Rosaura Paucek,17740.697989
e0049,lwiza,Lisha Wiza,17125.03
e0050,ekling,Elias Kling,59769.58
e0051,lleffler,Lee Leffler,47462.81
e0052,rrenner,Robin Renner,51318.45
e0053,cbatz,Cortez Batz,71780.87
e0054,jkiehn,Josef Kiehn,67907.82
e0055,mokeefe,Milda O'Keefe,60367.86
e0056,srunolfsdottir,Sung Runolfsdottir,23616.29
e0057,ebednar,Ellis Bednar,26617.58
e0058,elind,Elenor Lind,20223.63
e0059,sbogan,Stephanie Bogan,91329.65
e0060,snikolaus,Stewart Nikolaus,75198.75
e0061,cmitchell,Cameron Mitchell,69643.16
e0062,msporer,Maximina Sporer,23946.25
e0063,wschinner,Wilford Schinner,99122.72
e0064,lsteuber,Lindsay Steuber,42040.38452
e0065,cpadberg,Cary Padberg,83455.79
e0066,dnicolas,Despina Nicolas,29510.13
e0067,mwalter,Monte Walter,37193.03
e0068,ablock,Annalisa Block,34334.18
e0069,jkerluke,Jared Kerluke,92048.61
e0070,habernathy,Harris Abernathy,73054.43
e0071,sstokes,Sandra Stokes,50002.74
e0072,ctrantow,Celia Trantow,11211.06
e0073,kmcclure,Kurtis McClure,47626.82
e0074,lwisozk,Leon Wisozk,80545.33
e0075,ahodkiewicz,Ashley Hodkiewicz,40351.53
e0076,vwilderman,Valentine Wilderman,25229.94
e0077,lleannon,Lemuel Leannon,57301.64
e0078,zschumm,Zack Schumm,40990.22
e0079,jokon,Jaime O'Kon,13540.45
e0080,kcruickshank,Kimbra Cruickshank,89692.82
e0081,sswaniawski,Shane Swaniawski,31519.71
e0082,twatsica,Toney Watsica,36270.59
e0083,cschroeder,Corrina Schroeder,63916.85
e0084,yglover,Ying Glover,11204.22
e0085,tbosco,Trent Bosco,38089.39741
e0086,jsipes,Janella Sipes,94431.07
e0087,jjakubowski,Jefferey Jakubowski,94096.68
e0088,abradtke,Apolonia Bradtke,55749.84
e0089,ekemmer,Ericka Kemmer,90091.69
e0090,crolfson,Cortez Rolfson,56801.04
e0091,rcrist,Rolf Crist,17200.89
e0092,cpurdy,Carissa Purdy,26200.44
e0093,mmoen,Micheal Moen,96716.75
e0094,gcollier,Gaye Collier,23272.51
e0095,eterry,Eldridge Terry,65480.35
e0096,aondricka,Angel Ondricka,17324.65
e0097,bbednar,Beatriz Bednar,86557.91
e0098,swiza,Sam Wiza,10341.31
e0099,sborer,Sigrid Borer,14956.27
e0100,orosenbaum,Odis Rosenbaum,32252.77
